{
    "tradeDetails": {
        "tradeFee": 0.001,
        "priceModifierPct" : 0.010,
        "stopLossPct": 0.06,
        "lotSize": {
            "minQty": 0.001,
            "maxQty": 10000000.00000000
        },
        "price": {
            "minPrice": 0.01000000,
            "maxPrice": 10000000.00000000,
            "tickSize" : 0.01000000,
            "tickSizePrecision" : 2
        },
        "baseCurrency" : "USDT"
    },
    "symbols": {
        "BTCUSDT": {
            "orderValue": 2000.0,
            "qtyPrecision" : 6,
            "pricePrecision" : 2
        }
    }
}