[
    {
        "openTime": 1561161600000,
        "open": "3.40000000",
        "high": "3.44000000",
        "low": "1.88000000",
        "close": "2.19200000",
        "volume": "16217580.77900000",
        "closeTime": 1561247999999,
        "quoteVolume": "38927680.21328900",
        "trades": 97664,
        "baseAssetVolume": "7058690.14700000",
        "quoteAssetVolume": "16971528.59571900"
    },
    {
        "openTime": 1561248000000,
        "open": "2.19000000",
        "high": "2.23400000",
        "low": "1.80000000",
        "close": "1.93400000",
        "volume": "9875011.06000000",
        "closeTime": 1561334399999,
        "quoteVolume": "19416437.12669500",
        "trades": 44836,
        "baseAssetVolume": "3568606.62100000",
        "quoteAssetVolume": "7082862.68202900"
    },
    {
        "openTime": 1561334400000,
        "open": "1.93200000",
        "high": "2.02000000",
        "low": "1.30100000",
        "close": "1.41600000",
        "volume": "16193672.78800000",
        "closeTime": 1561420799999,
        "quoteVolume": "24965033.77168600",
        "trades": 61257,
        "baseAssetVolume": "6900474.37100000",
        "quoteAssetVolume": "10653573.80488800"
    },
    {
        "openTime": 1561420800000,
        "open": "1.41700000",
        "high": "1.92000000",
        "low": "1.31400000",
        "close": "1.54000000",
        "volume": "27118197.01900000",
        "closeTime": 1561507199999,
        "quoteVolume": "43527814.39229100",
        "trades": 108913,
        "baseAssetVolume": "12583324.94900000",
        "quoteAssetVolume": "20296006.30103800"
    },
    {
        "openTime": 1561507200000,
        "open": "1.53800000",
        "high": "1.87500000",
        "low": "1.45700000",
        "close": "1.59500000",
        "volume": "17449485.35900000",
        "closeTime": 1561593599999,
        "quoteVolume": "29200118.84022000",
        "trades": 75601,
        "baseAssetVolume": "7654141.15200000",
        "quoteAssetVolume": "12856124.34933000"
    },
    {
        "openTime": 1561593600000,
        "open": "1.59500000",
        "high": "1.59700000",
        "low": "1.54200000",
        "close": "1.54800000",
        "volume": "94185.98700000",
        "closeTime": 1561679999999,
        "quoteVolume": "148325.12588900",
        "trades": 489,
        "baseAssetVolume": "33423.67100000",
        "quoteAssetVolume": "52788.31021500"
    }
]