{
    "highlowStandard" : {
        "frequency" : 30,
        "live" : 1,
        "algorithm" : "high-low",
        "orderLabel" : "",
        "seedFile" : "./seed/highlow-list.json"
    },
    "highlowMin" : {
        "frequency" : 60,
        "live" : 1,
        "algorithm" : "high-low",
        "orderLabel" : "min",
        "seedFile" : "./seed/highlow-list.json"
    },
    "highlowTest" : {
        "frequency" : 45,
        "live" : 0,
        "algorithm" : "high-low",
        "orderLabel" : "test",
        "seedFile" : "./seed/highlow-list.json"
    },
    "regLinestandard" : {
        "frequency" : 300,
        "live" : 1,
        "algorithm" : "linear-regression",
        "orderLabel" : "",
        "seedFile" : "./seed/lrc-list.json"
    }
}

